<?xml version="1.0" encoding="utf-8"?>
<!-- Generator: Adobe Illustrator 16.0.0, SVG Export Plug-In . SVG Version: 6.00 Build 0)  -->
<!DOCTYPE svg PUBLIC "-//W3C//DTD SVG 1.1//EN" "http://www.w3.org/Graphics/SVG/1.1/DTD/svg11.dtd" [
	<!ENTITY ns_extend "http://ns.adobe.com/Extensibility/1.0/">
	<!ENTITY ns_ai "http://ns.adobe.com/AdobeIllustrator/10.0/">
	<!ENTITY ns_graphs "http://ns.adobe.com/Graphs/1.0/">
	<!ENTITY ns_vars "http://ns.adobe.com/Variables/1.0/">
	<!ENTITY ns_imrep "http://ns.adobe.com/ImageReplacement/1.0/">
	<!ENTITY ns_sfw "http://ns.adobe.com/SaveForWeb/1.0/">
	<!ENTITY ns_custom "http://ns.adobe.com/GenericCustomNamespace/1.0/">
	<!ENTITY ns_adobe_xpath "http://ns.adobe.com/XPath/1.0/">
]>
<svg version="1.1" xmlns:x="&ns_extend;" xmlns:i="&ns_ai;" xmlns:graph="&ns_graphs;"
	 xmlns="http://www.w3.org/2000/svg" xmlns:xlink="http://www.w3.org/1999/xlink" x="0px" y="0px" width="47px" height="70px"
	 viewBox="0 0 47 70" enable-background="new 0 0 47 70" xml:space="preserve">
<metadata>
	<sfw  xmlns="&ns_sfw;">
		<slices></slices>
		<sliceSourceBounds  y="-69.305" x="0.513" bottomLeftOrigin="true" height="68.543" width="46.055"></sliceSourceBounds>
	</sfw>
</metadata>
<g id="drop" display="none">
	<g id="dot" display="inline">
		<path fill-rule="evenodd" clip-rule="evenodd" d="M23.541,23.284c12.708,0,23.01,10.302,23.01,23.011
			c0,12.708-10.302,23.01-23.01,23.01c-12.708,0-23.01-10.302-23.01-23.01C0.531,33.586,10.833,23.284,23.541,23.284z"/>
	</g>
	<g id="point-left" display="inline">
		<path fill-rule="evenodd" clip-rule="evenodd" d="M0.531,46.262c0,0-0.891-9.494,9.99-22.978
			C21.402,9.801,23.507,0.761,23.507,0.761v45.5H0.531z"/>
	</g>
	<g id="point-right" display="inline">
		<path fill-rule="evenodd" clip-rule="evenodd" d="M46.551,46.352c0,0,0.893-9.512-10.021-23.022
			C25.611,9.819,23.5,0.761,23.5,0.761v45.59H46.551z"/>
	</g>
</g>
<g id="drop-outline">
	<g>
		<path fill-rule="evenodd" clip-rule="evenodd" d="M23.541,68.305c-12.136,0-22.01-9.874-22.01-22.01
			c0-0.044-0.003-0.088-0.008-0.132l0.005,0.005c-0.008-0.092-0.68-9.305,9.772-22.256C18.64,14.815,22.047,7.68,23.504,3.927
			c1.46,3.758,4.877,10.909,12.248,20.03c4.16,5.15,7.065,10.289,8.634,15.273c0.389,1.15,0.68,2.316,0.871,3.487l0.04,0.233
			c0.353,2.119,0.259,3.301,0.258,3.312C45.521,58.455,35.646,68.305,23.541,68.305z"/>
		<path fill="#A7A9AC" d="M23.504,6.504c1.846,4.122,5.289,10.434,11.47,18.082c4.081,5.053,6.927,10.081,8.472,14.985
			c0.364,1.078,0.643,2.191,0.827,3.321l0.014,0.072l0.033,0.201c0.302,1.814,0.246,2.883,0.239,2.998
			c-0.006,0.06-0.009,0.121-0.009,0.183c-0.028,11.557-9.453,20.958-21.009,20.958c-11.585,0-21.01-9.425-21.01-20.963
			c0.002-0.071-0.001-0.181-0.007-0.253c-0.007-0.088-0.583-8.987,9.554-21.549C18.232,16.914,21.663,10.619,23.504,6.504
			 M23.507,0.761c0,0-0.003,0.013-0.003,0.015c0-0.001-0.004-0.015-0.004-0.015v0.029c-0.074,0.308-2.288,9.245-12.979,22.494
			c-10.881,13.483-9.99,22.978-9.99,22.978h0.001c0,0.011-0.001,0.022-0.001,0.033c0,12.708,10.302,23.01,23.01,23.01
			c12.69,0,22.978-10.271,23.009-22.953h0.001c0,0,0.115-1.263-0.259-3.514c-0.009-0.054-0.019-0.107-0.026-0.161
			c-0.007-0.04-0.015-0.081-0.021-0.121c-0.204-1.245-0.509-2.455-0.904-3.625c-1.256-3.989-3.775-9.368-8.811-15.602
			C25.801,10.053,23.582,1.098,23.507,0.791V0.761L23.507,0.761z"/>
	</g>
</g>
</svg>
